//请求参数：
{
  "msg": null,
  "redirectURL": null,
  "successMsg": null,
  "items": [{
    "id": 36,
    "number": "Test1",
    "name": "测试商品1",
    "type": "香奈儿1号",
    "barCode": "123456",
    "specification": "1",
    "brand": "香奈儿",
    "taxClassification": "",
    "taxRate": 0.1600,
    "taxRateValue": null,
    "unit": "瓶",
    "volume": 15.00000000,
    "grossWeight": 0.50000000,
    "netWeight": 0.20000000,
    "purchasePrice": null,
    "purchasePriceValue": "500.00人民币",
    "salePrice": null,
    "salePriceValue": "650.00人民币",
    "creator": "管理员",
    "creatorAt": "2019-02-28 00:00:00",
    "status": 2,
    "statusName": "已完成",
    "purCurrencyTypeName": null,
    "saleCurrencyTypeName": null,
    "broad": 4.00000000,
    "grow": 10.00000000,
    "opertaList": [{
      "code": "/goods/edit",
      "value": "编辑"
    }, {
      "code": "/goods/detail",
      "value": "浏览"
    }, {
      "code": "/goods/lock",
      "value": "锁定"
    }]
  }, {
    "id": 2,
    "number": "SKU1002",
    "name": "\bIphone8 128G 灰 1",
    "type": "4G128",
    "barCode": "61902391012931",
    "specification": "1*1",
    "brand": "apple",
    "taxClassification": "console.log('xss')",
    "taxRate": 0.1700,
    "taxRateValue": null,
    "unit": "pcs",
    "volume": 0.30000000,
    "grossWeight": 0.55000000,
    "netWeight": 0.50000000,
    "purchasePrice": null,
    "purchasePriceValue": "900.00美元",
    "salePrice": null,
    "salePriceValue": "10.00美元",
    "creator": "管理员",
    "creatorAt": "2018-07-13 00:00:00",
    "status": 2,
    "statusName": "已完成",
    "purCurrencyTypeName": null,
    "saleCurrencyTypeName": null,
    "broad": 16.00000000,
    "grow": 23.00000000,
    "opertaList": [{
      "code": "/goods/edit",
      "value": "编辑"
    }, {
      "code": "/goods/detail",
      "value": "浏览"
    }, {
      "code": "/goods/lock",
      "value": "锁定"
    }]
  }, {
    "id": 1,
    "number": "SKU1001",
    "name": "IphoneX 256G 黑",
    "type": "4G256",
    "barCode": "690129312100",
    "specification": "pcs",
    "brand": "apple",
    "taxClassification": "",
    "taxRate": 0.1700,
    "taxRateValue": null,
    "unit": "pcs",
    "volume": 0.20000000,
    "grossWeight": 0.55000000,
    "netWeight": 0.50000000,
    "purchasePrice": null,
    "purchasePriceValue": "1,000.00美元",
    "salePrice": null,
    "salePriceValue": "1,100.00美元",
    "creator": "管理员",
    "creatorAt": "2018-07-13 00:00:00",
    "status": 2,
    "statusName": "已完成",
    "purCurrencyTypeName": null,
    "saleCurrencyTypeName": null,
    "broad": 16.00000000,
    "grow": 23.00000000,
    "opertaList": [{
      "code": "/goods/edit",
      "value": "编辑"
    }, {
      "code": "/goods/detail",
      "value": "浏览"
    }, {
      "code": "/goods/lock",
      "value": "锁定"
    }]
  }, {
    "id": 35,
    "number": "SKU10002",
    "name": "Iphone8 128G 灰 1",
    "type": "4G128",
    "barCode": "123456",
    "specification": "1*1",
    "brand": "apple",
    "taxClassification": "console.log('xss')",
    "taxRate": 0.1700,
    "taxRateValue": null,
    "unit": "pcs",
    "volume": 16.00000000,
    "grossWeight": 0.55000000,
    "netWeight": 0.50000000,
    "purchasePrice": null,
    "purchasePriceValue": "900.00人民币",
    "salePrice": null,
    "salePriceValue": "1,000.00人民币",
    "creator": "管理员",
    "creatorAt": "2019-02-28 00:00:00",
    "status": 1,
    "statusName": "待提交",
    "purCurrencyTypeName": null,
    "saleCurrencyTypeName": null,
    "broad": 23.00000000,
    "grow": 0.30000000,
    "opertaList": [{
      "code": "/goods/detail",
      "value": "浏览"
    }, {
      "code": "/goods/edit",
      "value": "编辑"
    }, {
      "code": "/goods/submit",
      "value": "提交"
    }, {
      "code": "/goods/delete",
      "value": "删除"
    }]
  }, {
    "id": 23,
    "number": "skd123",
    "name": "太阳能热水器",
    "type": "88银",
    "barCode": "123547954",
    "specification": "1*1",
    "brand": "桑普",
    "taxClassification": "",
    "taxRate": 0.1600,
    "taxRateValue": null,
    "unit": "台",
    "volume": 110.00000000,
    "grossWeight": 2.10000000,
    "netWeight": 1.80000000,
    "purchasePrice": null,
    "purchasePriceValue": "2,500.00人民币",
    "salePrice": null,
    "salePriceValue": "2,800.00人民币",
    "creator": "测试账号1",
    "creatorAt": "2018-10-16 00:00:00",
    "status": 2,
    "statusName": "已完成",
    "purCurrencyTypeName": null,
    "saleCurrencyTypeName": null,
    "broad": 80.00000000,
    "grow": 150.00000000,
    "opertaList": [{
      "code": "/goods/edit",
      "value": "编辑"
    }, {
      "code": "/goods/detail",
      "value": "浏览"
    }, {
      "code": "/goods/lock",
      "value": "锁定"
    }]
  }, {
    "id": 26,
    "number": "MS0002",
    "name": "美素佳儿儿童配方奶粉4段罐装900克*4",
    "type": "1",
    "barCode": "2100011423274 ",
    "specification": "4*900g",
    "brand": "美素佳儿",
    "taxClassification": "",
    "taxRate": 0.1600,
    "taxRateValue": null,
    "unit": "箱",
    "volume": 40.00000000,
    "grossWeight": 4.00000000,
    "netWeight": 3.60000000,
    "purchasePrice": null,
    "purchasePriceValue": "560.00人民币",
    "salePrice": null,
    "salePriceValue": "800.00人民币",
    "creator": "管理员",
    "creatorAt": "2019-01-22 00:00:00",
    "status": 2,
    "statusName": "已完成",
    "purCurrencyTypeName": null,
    "saleCurrencyTypeName": null,
    "broad": 40.00000000,
    "grow": 40.00000000,
    "opertaList": [{
      "code": "/goods/edit",
      "value": "编辑"
    }, {
      "code": "/goods/detail",
      "value": "浏览"
    }, {
      "code": "/goods/lock",
      "value": "锁定"
    }]
  }, {
    "id": 25,
    "number": "MS0001",
    "name": "美素佳儿儿童配方奶粉4段罐装900克*6",
    "type": "1",
    "barCode": "2100011423357",
    "specification": "6*900g",
    "brand": "美素佳儿",
    "taxClassification": "",
    "taxRate": 0.1600,
    "taxRateValue": null,
    "unit": "箱",
    "volume": 40.00000000,
    "grossWeight": 5.00000000,
    "netWeight": 4.50000000,
    "purchasePrice": null,
    "purchasePriceValue": "850.00人民币",
    "salePrice": null,
    "salePriceValue": "1,200.00人民币",
    "creator": "管理员",
    "creatorAt": "2019-01-22 00:00:00",
    "status": 2,
    "statusName": "已完成",
    "purCurrencyTypeName": null,
    "saleCurrencyTypeName": null,
    "broad": 40.00000000,
    "grow": 60.00000000,
    "opertaList": [{
      "code": "/goods/edit",
      "value": "编辑"
    }, {
      "code": "/goods/detail",
      "value": "浏览"
    }, {
      "code": "/goods/lock",
      "value": "锁定"
    }]
  }, {
    "id": 37,
    "number": "HS0001",
    "name": "惠氏金装婴幼儿奶粉1段",
    "type": "HS01",
    "barCode": "69123455677",
    "specification": "1*6",
    "brand": "惠氏",
    "taxClassification": "",
    "taxRate": 0.1600,
    "taxRateValue": null,
    "unit": "箱",
    "volume": 40.00000000,
    "grossWeight": 5.50000000,
    "netWeight": 5.00000000,
    "purchasePrice": null,
    "purchasePriceValue": "600.00人民币",
    "salePrice": null,
    "salePriceValue": "900.00人民币",
    "creator": "管理员",
    "creatorAt": "2019-03-06 00:00:00",
    "status": 2,
    "statusName": "已完成",
    "purCurrencyTypeName": null,
    "saleCurrencyTypeName": null,
    "broad": 40.00000000,
    "grow": 60.00000000,
    "opertaList": [{
      "code": "/goods/edit",
      "value": "编辑"
    }, {
      "code": "/goods/detail",
      "value": "浏览"
    }, {
      "code": "/goods/lock",
      "value": "锁定"
    }]
  }, {
    "id": 5,
    "number": "DH001",
    "name": "大豆01",
    "type": "10kg",
    "barCode": "DH001",
    "specification": "10kg",
    "brand": "农产品",
    "taxClassification": "",
    "taxRate": 0.1600,
    "taxRateValue": null,
    "unit": "KG",
    "volume": 1.00000000,
    "grossWeight": 1.00000000,
    "netWeight": 10.00000000,
    "purchasePrice": null,
    "purchasePriceValue": "1,000.00人民币",
    "salePrice": null,
    "salePriceValue": "1,100.00人民币",
    "creator": "管理员",
    "creatorAt": "2018-08-30 00:00:00",
    "status": 2,
    "statusName": "已完成",
    "purCurrencyTypeName": null,
    "saleCurrencyTypeName": null,
    "broad": 1.00000000,
    "grow": 1.00000000,
    "opertaList": [{
      "code": "/goods/edit",
      "value": "编辑"
    }, {
      "code": "/goods/detail",
      "value": "浏览"
    }, {
      "code": "/goods/lock",
      "value": "锁定"
    }]
  }, {
    "id": 34,
    "number": "ast10008",
    "name": "产品8",
    "type": "华为mate27",
    "barCode": "691234567812349",
    "specification": "1",
    "brand": "华为",
    "taxClassification": "",
    "taxRate": 0.1700,
    "taxRateValue": null,
    "unit": "pcs",
    "volume": 0.60000000,
    "grossWeight": 0.50000000,
    "netWeight": 0.12500000,
    "purchasePrice": null,
    "purchasePriceValue": "6,000.00人民币",
    "salePrice": null,
    "salePriceValue": "6,500.00人民币",
    "creator": "管理员",
    "creatorAt": "2019-02-28 00:00:00",
    "status": 2,
    "statusName": "已完成",
    "purCurrencyTypeName": null,
    "saleCurrencyTypeName": null,
    "broad": 8.00000000,
    "grow": 16.00000000,
    "opertaList": [{
      "code": "/goods/edit",
      "value": "编辑"
    }, {
      "code": "/goods/detail",
      "value": "浏览"
    }, {
      "code": "/goods/lock",
      "value": "锁定"
    }]
  }, {
    "id": 33,
    "number": "ast10007",
    "name": "产品7",
    "type": "华为mate26",
    "barCode": "691234567812348",
    "specification": "1",
    "brand": "华为",
    "taxClassification": "",
    "taxRate": 0.1700,
    "taxRateValue": null,
    "unit": "pcs",
    "volume": 0.60000000,
    "grossWeight": 0.50000000,
    "netWeight": 0.12500000,
    "purchasePrice": null,
    "purchasePriceValue": "6,000.00人民币",
    "salePrice": null,
    "salePriceValue": "6,500.00人民币",
    "creator": "管理员",
    "creatorAt": "2019-02-28 00:00:00",
    "status": 2,
    "statusName": "已完成",
    "purCurrencyTypeName": null,
    "saleCurrencyTypeName": null,
    "broad": 8.00000000,
    "grow": 16.00000000,
    "opertaList": [{
      "code": "/goods/edit",
      "value": "编辑"
    }, {
      "code": "/goods/detail",
      "value": "浏览"
    }, {
      "code": "/goods/lock",
      "value": "锁定"
    }]
  }, {
    "id": 32,
    "number": "ast10006",
    "name": "产品6",
    "type": "华为mate25",
    "barCode": "691234567812347",
    "specification": "1",
    "brand": "华为",
    "taxClassification": "",
    "taxRate": 0.1700,
    "taxRateValue": null,
    "unit": "pcs",
    "volume": 0.60000000,
    "grossWeight": 0.50000000,
    "netWeight": 0.12500000,
    "purchasePrice": null,
    "purchasePriceValue": "6,000.00人民币",
    "salePrice": null,
    "salePriceValue": "6,500.00人民币",
    "creator": "管理员",
    "creatorAt": "2019-02-28 00:00:00",
    "status": 2,
    "statusName": "已完成",
    "purCurrencyTypeName": null,
    "saleCurrencyTypeName": null,
    "broad": 8.00000000,
    "grow": 16.00000000,
    "opertaList": [{
      "code": "/goods/edit",
      "value": "编辑"
    }, {
      "code": "/goods/detail",
      "value": "浏览"
    }, {
      "code": "/goods/lock",
      "value": "锁定"
    }]
  }, {
    "id": 24,
    "number": "akspg01",
    "name": "苹果",
    "type": "90",
    "barCode": "1140",
    "specification": "20斤装",
    "brand": "阿克苏",
    "taxClassification": "",
    "taxRate": 0.0000,
    "taxRateValue": null,
    "unit": "箱",
    "volume": 30.00000000,
    "grossWeight": 11.00000000,
    "netWeight": 10.00000000,
    "purchasePrice": null,
    "purchasePriceValue": "100.00人民币",
    "salePrice": null,
    "salePriceValue": "200.00人民币",
    "creator": "测试账号1",
    "creatorAt": "2018-12-10 00:00:00",
    "status": 2,
    "statusName": "已完成",
    "purCurrencyTypeName": null,
    "saleCurrencyTypeName": null,
    "broad": 30.00000000,
    "grow": 50.00000000,
    "opertaList": [{
      "code": "/goods/edit",
      "value": "编辑"
    }, {
      "code": "/goods/detail",
      "value": "浏览"
    }, {
      "code": "/goods/lock",
      "value": "锁定"
    }]
  }, {
    "id": 4,
    "number": "13811",
    "name": "冰箱",
    "type": "131414",
    "barCode": "134",
    "specification": "1341",
    "brand": "奥克斯",
    "taxClassification": "",
    "taxRate": 0.1600,
    "taxRateValue": null,
    "unit": "1",
    "volume": 1.00000000,
    "grossWeight": 1.00000000,
    "netWeight": 4.00000000,
    "purchasePrice": null,
    "purchasePriceValue": "2,600.00人民币",
    "salePrice": null,
    "salePriceValue": "2,600.00人民币",
    "creator": "管理员",
    "creatorAt": "2018-08-23 00:00:00",
    "status": 2,
    "statusName": "已完成",
    "purCurrencyTypeName": null,
    "saleCurrencyTypeName": null,
    "broad": 1.00000000,
    "grow": 1.00000000,
    "opertaList": [{
      "code": "/goods/edit",
      "value": "编辑"
    }, {
      "code": "/goods/detail",
      "value": "浏览"
    }, {
      "code": "/goods/lock",
      "value": "锁定"
    }]
  }, {
    "id": 22,
    "number": "123456789",
    "name": "空调",
    "type": "KFR-23GW/DY-DH400(D3)",
    "barCode": "123456789",
    "specification": "1*1",
    "brand": "美的",
    "taxClassification": "",
    "taxRate": 0.1600,
    "taxRateValue": null,
    "unit": "套",
    "volume": 10.00000000,
    "grossWeight": 10.00000000,
    "netWeight": 9.00000000,
    "purchasePrice": null,
    "purchasePriceValue": "1,900.00人民币",
    "salePrice": null,
    "salePriceValue": "1,900.00人民币",
    "creator": "管理员",
    "creatorAt": "2018-09-27 00:00:00",
    "status": 2,
    "statusName": "已完成",
    "purCurrencyTypeName": null,
    "saleCurrencyTypeName": null,
    "broad": 10.00000000,
    "grow": 10.00000000,
    "opertaList": [{
      "code": "/goods/edit",
      "value": "编辑"
    }, {
      "code": "/goods/detail",
      "value": "浏览"
    }, {
      "code": "/goods/lock",
      "value": "锁定"
    }]
  }, {
    "id": 3,
    "number": "111111",
    "name": "空调",
    "type": "35DA",
    "barCode": "11111",
    "specification": "1.5匹",
    "brand": "美的",
    "taxClassification": "",
    "taxRate": 0.1700,
    "taxRateValue": null,
    "unit": "套",
    "volume": 112.00000000,
    "grossWeight": 50.00000000,
    "netWeight": 40.00000000,
    "purchasePrice": null,
    "purchasePriceValue": "2,500.00人民币",
    "salePrice": null,
    "salePriceValue": "2,500.00人民币",
    "creator": "管理员",
    "creatorAt": "2018-08-05 00:00:00",
    "status": 2,
    "statusName": "已完成",
    "purCurrencyTypeName": null,
    "saleCurrencyTypeName": null,
    "broad": 24.00000000,
    "grow": 24.00000000,
    "opertaList": [{
      "code": "/goods/edit",
      "value": "编辑"
    }, {
      "code": "/goods/detail",
      "value": "浏览"
    }, {
      "code": "/goods/lock",
      "value": "锁定"
    }]
  }, {
    "id": 38,
    "number": "111",
    "name": "333",
    "type": "555",
    "barCode": "66",
    "specification": "7777",
    "brand": "444",
    "taxClassification": "",
    "taxRate": 0.1700,
    "taxRateValue": null,
    "unit": "ge",
    "volume": 1.00000000,
    "grossWeight": 1.00000000,
    "netWeight": 1.00000000,
    "purchasePrice": null,
    "purchasePriceValue": "10.00人民币",
    "salePrice": null,
    "salePriceValue": "10.00人民币",
    "creator": "管理员",
    "creatorAt": "2019-06-11 00:00:00",
    "status": 2,
    "statusName": "已完成",
    "purCurrencyTypeName": null,
    "saleCurrencyTypeName": null,
    "broad": 1.00000000,
    "grow": 1.00000000,
    "opertaList": [{
      "code": "/goods/edit",
      "value": "编辑"
    }, {
      "code": "/goods/detail",
      "value": "浏览"
    }, {
      "code": "/goods/lock",
      "value": "锁定"
    }]
  }, {
    "id": 21,
    "number": "100016",
    "name": "（配3米铜连接管）室外机",
    "type": "KFR-35W/31",
    "barCode": "6931084349317",
    "specification": "1*1",
    "brand": "TCL",
    "taxClassification": "",
    "taxRate": 0.1600,
    "taxRateValue": null,
    "unit": "台",
    "volume": 59.00000000,
    "grossWeight": 40.00000000,
    "netWeight": 35.00000000,
    "purchasePrice": null,
    "purchasePriceValue": "0.00人民币",
    "salePrice": null,
    "salePriceValue": "0.00人民币",
    "creator": "管理员",
    "creatorAt": "2018-09-21 00:00:00",
    "status": 2,
    "statusName": "已完成",
    "purCurrencyTypeName": null,
    "saleCurrencyTypeName": null,
    "broad": 36.10000000,
    "grow": 86.30000000,
    "opertaList": [{
      "code": "/goods/edit",
      "value": "编辑"
    }, {
      "code": "/goods/detail",
      "value": "浏览"
    }, {
      "code": "/goods/lock",
      "value": "锁定"
    }]
  }, {
    "id": 20,
    "number": "100015",
    "name": "(怡然风）室内机",
    "type": "KFRd-35G/XA11+3",
    "barCode": "6931084349300",
    "specification": "1*1",
    "brand": "TCL",
    "taxClassification": "",
    "taxRate": 0.1600,
    "taxRateValue": null,
    "unit": "台",
    "volume": 27.80000000,
    "grossWeight": 12.00000000,
    "netWeight": 10.00000000,
    "purchasePrice": null,
    "purchasePriceValue": "1,630.00人民币",
    "salePrice": null,
    "salePriceValue": "1,680.00人民币",
    "creator": "管理员",
    "creatorAt": "2018-09-21 00:00:00",
    "status": 2,
    "statusName": "已完成",
    "purCurrencyTypeName": null,
    "saleCurrencyTypeName": null,
    "broad": 36.60000000,
    "grow": 88.50000000,
    "opertaList": [{
      "code": "/goods/edit",
      "value": "编辑"
    }, {
      "code": "/goods/detail",
      "value": "浏览"
    }, {
      "code": "/goods/lock",
      "value": "锁定"
    }]
  }, {
    "id": 19,
    "number": "100014",
    "name": "室外机 定频",
    "type": "KFR-51W/21",
    "barCode": "6931084395512",
    "specification": "1*1",
    "brand": "TCL",
    "taxClassification": "",
    "taxRate": 0.1600,
    "taxRateValue": null,
    "unit": "台",
    "volume": 65.30000000,
    "grossWeight": 46.00000000,
    "netWeight": 43.00000000,
    "purchasePrice": null,
    "purchasePriceValue": "0.00人民币",
    "salePrice": null,
    "salePriceValue": "0.00人民币",
    "creator": "管理员",
    "creatorAt": "2018-09-21 00:00:00",
    "status": 1,
    "statusName": "待提交",
    "purCurrencyTypeName": null,
    "saleCurrencyTypeName": null,
    "broad": 41.20000000,
    "grow": 88.30000000,
    "opertaList": [{
      "code": "/goods/detail",
      "value": "浏览"
    }, {
      "code": "/goods/edit",
      "value": "编辑"
    }, {
      "code": "/goods/submit",
      "value": "提交"
    }, {
      "code": "/goods/delete",
      "value": "删除"
    }]
  }, {
    "id": 18,
    "number": "100013",
    "name": "（WiFi）室内机 定频",
    "type": "KFRd-51LW/MC12+2",
    "barCode": "6931084395505",
    "specification": "1*1",
    "brand": "TCL",
    "taxClassification": "",
    "taxRate": 0.1600,
    "taxRateValue": null,
    "unit": "台",
    "volume": 50.00000000,
    "grossWeight": 37.00000000,
    "netWeight": 28.00000000,
    "purchasePrice": null,
    "purchasePriceValue": "3,346.00人民币",
    "salePrice": null,
    "salePriceValue": "3,390.00人民币",
    "creator": "管理员",
    "creatorAt": "2018-09-21 00:00:00",
    "status": 1,
    "statusName": "待提交",
    "purCurrencyTypeName": null,
    "saleCurrencyTypeName": null,
    "broad": 49.00000000,
    "grow": 186.00000000,
    "opertaList": [{
      "code": "/goods/detail",
      "value": "浏览"
    }, {
      "code": "/goods/edit",
      "value": "编辑"
    }, {
      "code": "/goods/submit",
      "value": "提交"
    }, {
      "code": "/goods/delete",
      "value": "删除"
    }]
  }, {
    "id": 17,
    "number": "100012",
    "name": "室外机 定频",
    "type": "KFR-72W/21",
    "barCode": "6931084395536",
    "specification": "1*1",
    "brand": "TCL",
    "taxClassification": "",
    "taxRate": 0.1600,
    "taxRateValue": null,
    "unit": "台",
    "volume": 62.80000000,
    "grossWeight": 40.00000000,
    "netWeight": 36.00000000,
    "purchasePrice": null,
    "purchasePriceValue": "0.00人民币",
    "salePrice": null,
    "salePriceValue": "0.00人民币",
    "creator": "管理员",
    "creatorAt": "2018-09-21 00:00:00",
    "status": 1,
    "statusName": "待提交",
    "purCurrencyTypeName": null,
    "saleCurrencyTypeName": null,
    "broad": 38.50000000,
    "grow": 89.00000000,
    "opertaList": [{
      "code": "/goods/detail",
      "value": "浏览"
    }, {
      "code": "/goods/edit",
      "value": "编辑"
    }, {
      "code": "/goods/submit",
      "value": "提交"
    }, {
      "code": "/goods/delete",
      "value": "删除"
    }]
  }, {
    "id": 16,
    "number": "100011",
    "name": "（WiFi）室内机 定频",
    "type": "KFRd-72L/MC12+2",
    "barCode": "6931084395529",
    "specification": "1*1",
    "brand": "TCL",
    "taxClassification": "",
    "taxRate": 0.1600,
    "taxRateValue": null,
    "unit": "台",
    "volume": 50.00000000,
    "grossWeight": 37.00000000,
    "netWeight": 29.00000000,
    "purchasePrice": null,
    "purchasePriceValue": "4,120.00人民币",
    "salePrice": null,
    "salePriceValue": "4,190.00人民币",
    "creator": "管理员",
    "creatorAt": "2018-09-21 00:00:00",
    "status": 1,
    "statusName": "待提交",
    "purCurrencyTypeName": null,
    "saleCurrencyTypeName": null,
    "broad": 49.00000000,
    "grow": 193.40000000,
    "opertaList": [{
      "code": "/goods/detail",
      "value": "浏览"
    }, {
      "code": "/goods/edit",
      "value": "编辑"
    }, {
      "code": "/goods/submit",
      "value": "提交"
    }, {
      "code": "/goods/delete",
      "value": "删除"
    }]
  }, {
    "id": 15,
    "number": "100010",
    "name": "（配3米铜连接管）室外机",
    "type": "KFR-26W/31",
    "barCode": "6931084349348",
    "specification": "1*1",
    "brand": "TCL",
    "taxClassification": "",
    "taxRate": 0.1600,
    "taxRateValue": null,
    "unit": "台",
    "volume": 59.00000000,
    "grossWeight": 32.00000000,
    "netWeight": 28.00000000,
    "purchasePrice": null,
    "purchasePriceValue": "0.00人民币",
    "salePrice": null,
    "salePriceValue": "0.00人民币",
    "creator": "管理员",
    "creatorAt": "2018-09-21 00:00:00",
    "status": 2,
    "statusName": "已完成",
    "purCurrencyTypeName": null,
    "saleCurrencyTypeName": null,
    "broad": 34.00000000,
    "grow": 83.50000000,
    "opertaList": [{
      "code": "/goods/edit",
      "value": "编辑"
    }, {
      "code": "/goods/detail",
      "value": "浏览"
    }, {
      "code": "/goods/lock",
      "value": "锁定"
    }]
  }, {
    "id": 14,
    "number": "100009",
    "name": "(怡然风）室内机",
    "type": "KFRd-26G/XA11+3",
    "barCode": "6931084349331",
    "specification": "1*1",
    "brand": "TCL",
    "taxClassification": "",
    "taxRate": 0.1600,
    "taxRateValue": null,
    "unit": "台",
    "volume": 27.50000000,
    "grossWeight": 10.50000000,
    "netWeight": 8.50000000,
    "purchasePrice": null,
    "purchasePriceValue": "1,436.00人民币",
    "salePrice": null,
    "salePriceValue": "1,530.00人民币",
    "creator": "管理员",
    "creatorAt": "2018-09-21 00:00:00",
    "status": 1,
    "statusName": "待提交",
    "purCurrencyTypeName": null,
    "saleCurrencyTypeName": null,
    "broad": 31.50000000,
    "grow": 84.50000000,
    "opertaList": [{
      "code": "/goods/detail",
      "value": "浏览"
    }, {
      "code": "/goods/edit",
      "value": "编辑"
    }, {
      "code": "/goods/submit",
      "value": "提交"
    }, {
      "code": "/goods/delete",
      "value": "删除"
    }]
  }],
  "total": 33,
  "current_page": 0,
  "per_page": 25,
  "last_page": 2,
  "totalAmount": null,
  "totalNum": null,
  "feeTotalAmount": null,
  "exRateTotalAmount": null,
  "rateTotalAmount": null,
  "currency": "CNY",
  "totalStr": null,
  "footer": null,
  "permission": true,
  "login": false,
  "success": true
}